<svg width="361" height="91" viewBox="0 0 361 91" fill="none" xmlns="http://www.w3.org/2000/svg">
<path d="M12.5125 89.2937C5.6875 88.725 0 82.7531 0 76.2125V14.7875C0 8.24688 5.6875 2.275 12.5125 1.70625C34.4094 -0.56875 56.5906 -0.56875 78.7719 1.70625C85.3125 2.275 91 8.24688 91 14.7875V76.2125C91 82.7531 85.3125 88.725 78.4875 89.2937C67.6813 90.4312 56.5906 91 45.5 91C34.4094 91 23.3187 90.4312 12.5125 89.2937Z" fill="url(#paint0_linear)"/>
<path fill-rule="evenodd" clip-rule="evenodd" d="M26.8519 22.2284C27.973 21.7641 29.2633 22.0208 30.1213 22.8788L46 38.7574L61.8787 22.8788C62.7367 22.0208 64.027 21.7641 65.148 22.2284C66.2691 22.6928 67 23.7867 67 25.0001V58.0001C67 59.6569 65.6569 61.0001 64 61.0001C62.3431 61.0001 61 59.6569 61 58.0001V32.2427L48.1213 45.1214C46.9497 46.293 45.0503 46.293 43.8787 45.1214L31 32.2427V58.0001C31 59.6569 29.6569 61.0001 28 61.0001C26.3431 61.0001 25 59.6569 25 58.0001V25.0001C25 23.7867 25.7309 22.6928 26.8519 22.2284ZM49 62.2427L56.1213 55.1214C57.2929 53.9498 57.2929 52.0503 56.1213 50.8788C54.9497 49.7072 53.0503 49.7072 51.8787 50.8788L46 56.7575L40.1213 50.8788C38.9497 49.7072 37.0503 49.7072 35.8787 50.8788C34.7071 52.0503 34.7071 53.9498 35.8787 55.1214L43 62.2427V70.0001C43 71.6569 44.3431 73.0001 46 73.0001C47.6569 73.0001 49 71.6569 49 70.0001V62.2427Z" fill="#B34D00"/>
<path fill-rule="evenodd" clip-rule="evenodd" d="M168.101 30.6721C169.243 31.8149 169.243 33.6677 168.101 34.8105C166.958 35.9532 165.105 35.9532 163.962 34.8105L144.124 14.9722L119 40.0963L119 77H188.078C189.735 77 191.078 78.3431 191.078 80C191.078 81.6569 189.735 83 188.078 83H116.078L116.039 82.9997L116 83C114.343 83 113 81.6569 113 80L113 40C113 39.8339 113.014 39.6709 113.039 39.5121C112.891 38.6123 113.163 37.6564 113.857 36.9624L141.962 8.85717C142.557 8.26258 143.344 7.97735 144.123 8.00149C144.903 7.97664 145.69 8.26184 146.286 8.85709L168.101 30.6721ZM172.879 39.8846C174.05 38.705 175.95 38.705 177.121 39.8846L186.879 49.7081L196.879 39.8846C198.05 38.705 199.95 38.705 201.121 39.8846C202.293 41.0641 202.293 42.9765 201.121 44.156L190 55.1287V65.9999C190 67.6568 188.657 68.9999 187 68.9999C185.343 68.9999 184 67.6568 184 65.9999V55.3528L172.879 44.156C171.707 42.9765 171.707 41.0641 172.879 39.8846ZM268 44.9999C263.029 44.9999 259 49.0294 259 53.9999C259 58.9705 263.029 62.9999 268 62.9999C272.971 62.9999 277 58.9705 277 53.9999C277 49.0294 272.971 44.9999 268 44.9999ZM253 53.9999C253 45.7157 259.716 38.9999 268 38.9999C276.284 38.9999 283 45.7157 283 53.9999C283 62.2842 276.284 68.9999 268 68.9999C259.716 68.9999 253 62.2842 253 53.9999ZM310 44.9999C305.029 44.9999 301 49.0294 301 53.9999C301 58.9705 305.029 62.9999 310 62.9999C314.971 62.9999 319 58.9705 319 53.9999C319 49.0294 314.971 44.9999 310 44.9999ZM295 53.9999C295 45.7157 301.716 38.9999 310 38.9999C318.284 38.9999 325 45.7157 325 53.9999C325 62.2842 318.284 68.9999 310 68.9999C301.716 68.9999 295 62.2842 295 53.9999ZM134.108 39.8787C133.252 39.0207 131.965 38.7641 130.847 39.2284C129.729 39.6927 129 40.7867 129 42V66C129 67.6569 130.34 69 131.992 69C133.644 69 134.984 67.6569 134.984 66V49.2427L141.844 56.1214C143.013 57.2929 144.907 57.2929 146.076 56.1214L152.936 49.2427V66C152.936 67.6569 154.276 69 155.928 69C157.581 69 158.92 67.6569 158.92 66V42C158.92 40.7867 158.191 39.6927 157.073 39.2284C155.955 38.7641 154.668 39.0207 153.813 39.8787L143.96 49.7574L134.108 39.8787ZM218 38.9999C216.343 38.9999 215 40.3431 215 41.9999V54V55.9999V66C215 67.6568 216.343 69 218 69L229.5 69C234.157 69 238 64.6568 238 59.9999C238 56.816 236.204 53.7787 233.579 52.1759C234.475 50.8302 235 49.2206 235 47.4999C235 42.8431 231.157 38.9999 226.5 38.9999H218ZM220.831 49.9999V44.9999H226.5C227.843 44.9999 229 46.1568 229 47.4999C229 48.8431 227.843 49.9999 226.5 49.9999H220.831ZM221 63V57H229.5C230.843 57 232 57.9999 232 59.9999C232 61.9999 230.843 63 229.5 63H221ZM345 41.9999C345 40.3431 343.657 38.9999 342 38.9999C340.343 38.9999 339 40.3431 339 41.9999V65.9999C339 67.6568 340.343 68.9999 342 68.9999C343.657 68.9999 345 67.6568 345 65.9999V57.27L355.861 68.1133C357.036 69.2955 358.943 69.2955 360.118 68.1133C361.294 66.9312 361.294 65.0145 360.118 63.8324L350.268 54.0131L360.118 44.1676C361.294 42.9854 361.294 41.0687 360.118 39.8866C358.943 38.7044 357.036 38.7044 355.861 39.8866L345 50.7537V41.9999Z" fill="black"/>
<defs>
<linearGradient id="paint0_linear" x1="45.5" y1="0" x2="45.5" y2="91" gradientUnits="userSpaceOnUse">
<stop stop-color="#FFD754"/>
<stop offset="1" stop-color="#FF9B29"/>
</linearGradient>
</defs>
</svg>
